%!PS-Adobe-2.0 EPSF-1.2
%%Creator: MATLAB, The Mathworks, Inc. Version 7.6.0.324 (R2008a). Operating System: Linux 2.6.31-14-generic #48-Ubuntu SMP Fri Oct 16 14:04:26 UTC 2009 i686.
%%Title: ./density1.eps
%%CreationDate: 04/26/2010  21:39:53
%%DocumentNeededFonts: Helvetica
%%DocumentProcessColors: Cyan Magenta Yellow Black
%%Extensions: CMYK
%%Pages: 1
%%BoundingBox:    24     0   315   247
%%EndComments

%%BeginProlog
% MathWorks dictionary
/MathWorks 160 dict begin
% definition operators
/bdef {bind def} bind def
/ldef {load def} bind def
/xdef {exch def} bdef
/xstore {exch store} bdef
% operator abbreviations
/c  /clip ldef
/cc /concat ldef
/cp /closepath ldef
/gr /grestore ldef
/gs /gsave ldef
/mt /moveto ldef
/np /newpath ldef
/cm /currentmatrix ldef
/sm /setmatrix ldef
/rm /rmoveto ldef
/rl /rlineto ldef
/s {show newpath} bdef
/sc {setcmykcolor} bdef
/sr /setrgbcolor ldef
/sg /setgray ldef
/w /setlinewidth ldef
/j /setlinejoin ldef
/cap /setlinecap ldef
/rc {rectclip} bdef
/rf {rectfill} bdef
% page state control
/pgsv () def
/bpage {/pgsv save def} bdef
/epage {pgsv restore} bdef
/bplot /gsave ldef
/eplot {stroke grestore} bdef
% orientation switch
/portraitMode 0 def /landscapeMode 1 def /rotateMode 2 def
% coordinate system mappings
/dpi2point 0 def
% font control
/FontSize 0 def
/FMS {/FontSize xstore findfont [FontSize 0 0 FontSize neg 0 0]
  makefont setfont} bdef
/reencode {exch dup where {pop load} {pop StandardEncoding} ifelse
  exch dup 3 1 roll findfont dup length dict begin
  { 1 index /FID ne {def}{pop pop} ifelse } forall
  /Encoding exch def currentdict end definefont pop} bdef
/isroman {findfont /CharStrings get /Agrave known} bdef
/FMSR {3 1 roll 1 index dup isroman {reencode} {pop pop} ifelse
  exch FMS} bdef
/csm {1 dpi2point div -1 dpi2point div scale neg translate
 dup landscapeMode eq {pop -90 rotate}
  {rotateMode eq {90 rotate} if} ifelse} bdef
% line types: solid, dotted, dashed, dotdash
/SO { [] 0 setdash } bdef
/DO { [.5 dpi2point mul 4 dpi2point mul] 0 setdash } bdef
/DA { [6 dpi2point mul] 0 setdash } bdef
/DD { [.5 dpi2point mul 4 dpi2point mul 6 dpi2point mul 4
  dpi2point mul] 0 setdash } bdef
% macros for lines and objects
/L {lineto stroke} bdef
/MP {3 1 roll moveto 1 sub {rlineto} repeat} bdef
/AP {{rlineto} repeat} bdef
/PDlw -1 def
/W {/PDlw currentlinewidth def setlinewidth} def
/PP {closepath eofill} bdef
/DP {closepath stroke} bdef
/MR {4 -2 roll moveto dup  0 exch rlineto exch 0 rlineto
  neg 0 exch rlineto closepath} bdef
/FR {MR stroke} bdef
/PR {MR fill} bdef
/L1i {{currentfile picstr readhexstring pop} image} bdef
/tMatrix matrix def
/MakeOval {newpath tMatrix currentmatrix pop translate scale
0 0 1 0 360 arc tMatrix setmatrix} bdef
/FO {MakeOval stroke} bdef
/PO {MakeOval fill} bdef
/PD {currentlinewidth 2 div 0 360 arc fill
   PDlw -1 eq not {PDlw w /PDlw -1 def} if} def
/FA {newpath tMatrix currentmatrix pop translate scale
  0 0 1 5 -2 roll arc tMatrix setmatrix stroke} bdef
/PA {newpath tMatrix currentmatrix pop	translate 0 0 moveto scale
  0 0 1 5 -2 roll arc closepath tMatrix setmatrix fill} bdef
/FAn {newpath tMatrix currentmatrix pop translate scale
  0 0 1 5 -2 roll arcn tMatrix setmatrix stroke} bdef
/PAn {newpath tMatrix currentmatrix pop translate 0 0 moveto scale
  0 0 1 5 -2 roll arcn closepath tMatrix setmatrix fill} bdef
/vradius 0 def /hradius 0 def /lry 0 def
/lrx 0 def /uly 0 def /ulx 0 def /rad 0 def
/MRR {/vradius xdef /hradius xdef /lry xdef /lrx xdef /uly xdef
  /ulx xdef newpath tMatrix currentmatrix pop ulx hradius add uly
  vradius add translate hradius vradius scale 0 0 1 180 270 arc 
  tMatrix setmatrix lrx hradius sub uly vradius add translate
  hradius vradius scale 0 0 1 270 360 arc tMatrix setmatrix
  lrx hradius sub lry vradius sub translate hradius vradius scale
  0 0 1 0 90 arc tMatrix setmatrix ulx hradius add lry vradius sub
  translate hradius vradius scale 0 0 1 90 180 arc tMatrix setmatrix
  closepath} bdef
/FRR {MRR stroke } bdef
/PRR {MRR fill } bdef
/MlrRR {/lry xdef /lrx xdef /uly xdef /ulx xdef /rad lry uly sub 2 div def
  newpath tMatrix currentmatrix pop ulx rad add uly rad add translate
  rad rad scale 0 0 1 90 270 arc tMatrix setmatrix lrx rad sub lry rad
  sub translate rad rad scale 0 0 1 270 90 arc tMatrix setmatrix
  closepath} bdef
/FlrRR {MlrRR stroke } bdef
/PlrRR {MlrRR fill } bdef
/MtbRR {/lry xdef /lrx xdef /uly xdef /ulx xdef /rad lrx ulx sub 2 div def
  newpath tMatrix currentmatrix pop ulx rad add uly rad add translate
  rad rad scale 0 0 1 180 360 arc tMatrix setmatrix lrx rad sub lry rad
  sub translate rad rad scale 0 0 1 0 180 arc tMatrix setmatrix
  closepath} bdef
/FtbRR {MtbRR stroke } bdef
/PtbRR {MtbRR fill } bdef
/stri 6 array def /dtri 6 array def
/smat 6 array def /dmat 6 array def
/tmat1 6 array def /tmat2 6 array def /dif 3 array def
/asub {/ind2 exch def /ind1 exch def dup dup
  ind1 get exch ind2 get sub exch } bdef
/tri_to_matrix {
  2 0 asub 3 1 asub 4 0 asub 5 1 asub
  dup 0 get exch 1 get 7 -1 roll astore } bdef
/compute_transform {
  dmat dtri tri_to_matrix tmat1 invertmatrix 
  smat stri tri_to_matrix tmat2 concatmatrix } bdef
/ds {stri astore pop} bdef
/dt {dtri astore pop} bdef
/db {2 copy /cols xdef /rows xdef mul dup 3 mul string
  currentfile exch readhexstring pop
  dup 0 3 index getinterval /rbmap xdef
  dup 2 index dup getinterval /gbmap xdef
  1 index dup 2 mul exch getinterval /bbmap xdef pop pop}bdef
/it {gs np dtri aload pop moveto lineto lineto cp c
  cols rows 8 compute_transform 
  rbmap gbmap bbmap true 3 colorimage gr}bdef
/il {newpath moveto lineto stroke}bdef
currentdict end def
%%EndProlog

%%BeginSetup
MathWorks begin

0 cap

end
%%EndSetup

%%Page: 1 1
%%BeginPageSetup
%%PageBoundingBox:    24     0   315   247
MathWorks begin
bpage
%%EndPageSetup

%%BeginObject: obj1
bplot

/dpi2point 12 def
portraitMode 0000 3060 csm

  296    88  3490  2976 MR c np
85 dict begin %Colortable dictionary
/c0 { 0.000000 0.000000 0.000000 sr} bdef
/c1 { 1.000000 1.000000 1.000000 sr} bdef
/c2 { 0.900000 0.000000 0.000000 sr} bdef
/c3 { 0.000000 0.820000 0.000000 sr} bdef
/c4 { 0.000000 0.000000 0.800000 sr} bdef
/c5 { 0.910000 0.820000 0.320000 sr} bdef
/c6 { 1.000000 0.260000 0.820000 sr} bdef
/c7 { 0.000000 0.820000 0.820000 sr} bdef
c0
1 j
1 sg
   0    0 4085 3065 PR
6 w
0 2471 3166 0 0 -2471 530 2701 4 MP
PP
-3166 0 0 2471 3166 0 0 -2471 530 2701 5 MP stroke
4 w
DO
SO
6 w
0 sg
 530 2701 mt 3696 2701 L
 530 2701 mt  530  230 L
 530 2701 mt  530 2669 L
%%IncludeResource: font Helvetica
/Helvetica /ISOLatin1Encoding 144 FMSR

 406 2869 mt 
(-1) s
1322 2701 mt 1322 2669 L
1282 2869 mt 
(0) s
2113 2701 mt 2113 2669 L
2073 2869 mt 
(1) s
2904 2701 mt 2904 2669 L
2864 2869 mt 
(2) s
3696 2701 mt 3696 2669 L
3656 2869 mt 
(3) s
 530 2701 mt  562 2701 L
 416 2754 mt 
(0) s
 530 2348 mt  562 2348 L
 296 2401 mt 
(0.5) s
 530 1995 mt  562 1995 L
 416 2048 mt 
(1) s
 530 1642 mt  562 1642 L
 296 1695 mt 
(1.5) s
 530 1289 mt  562 1289 L
 416 1342 mt 
(2) s
 530  936 mt  562  936 L
 296  989 mt 
(2.5) s
 530  583 mt  562  583 L
 416  636 mt 
(3) s
 530  230 mt  562  230 L
 296  283 mt 
(3.5) s
gs 531 230 3166 2472 MR c np
24 w
/c8 { 0.000000 0.000000 1.000000 sr} bdef
c8
28 0 28 0 28 0 28 0 28 0 28 0 28 1 28 0 
28 0 28 1 28 1 28 0 28 1 28 2 28 1 28 2 
28 2 28 2 28 3 28 3 28 4 28 5 28 5 28 6 
28 7 28 8 28 9 28 10 28 11 28 12 28 13 28 15 
28 16 28 17 28 19 28 19 28 21 27 21 28 23 28 23 
28 24 28 24 28 24 28 24 28 24 28 23 28 22 28 20 
28 20 28 17 28 16 28 13 28 11 28 9 28 5 28 3 
28 1 28 -3 28 -5 28 -9 28 -10 28 -13 28 -15 28 -18 
28 -19 28 -20 28 -22 28 -23 28 -24 28 -24 28 -24 28 -24 
28 -24 28 -23 28 -22 27 -22 28 -21 28 -20 28 -18 28 -18 
28 -16 28 -15 28 -13 28 -13 28 -11 28 -10 28 -9 28 -8 
28 -7 28 -6 28 -5 28 -5 28 -4 28 -4 28 -2 28 -3 
28 -2 28 -2 28 -1 926 2694 100 MP stroke
0 sg
28 0 28 0 28 0 28 0 28 0 28 0 28 0 28 0 
28 0 28 0 28 0 28 0 28 0 28 0 28 0 28 0 
28 0 28 0 28 0 28 0 28 0 28 0 28 0 28 0 
28 0 28 0 28 1 28 0 28 0 28 0 28 0 28 0 
28 0 28 0 28 0 28 0 28 0 27 0 28 0 28 0 
28 0 28 0 28 1 28 3 28 6 28 15 28 32 28 62 
28 108 28 173 28 251 28 325 28 376 28 377 28 312 28 182 
28 13 28 -160 28 -297 28 -371 28 -380 28 -335 28 -262 28 -184 
28 -116 28 -67 28 -35 28 -17 28 -8 28 -3 28 -1 28 0 
28 0 28 0 28 0 27 0 28 0 28 0 28 0 28 0 
28 0 28 0 28 0 28 0 28 0 28 0 28 -1 28 0 
28 0 28 0 28 0 28 0 28 0 28 0 28 0 28 0 
28 0 28 0 28 0 926 2701 100 MP stroke
gr

24 w
2076 3030 mt 
(x) s
%%IncludeResource: font Helvetica
/Helvetica /ISOLatin1Encoding 120 FMSR

 514 2744 mt 
( ) s
3680  272 mt 
( ) s
6 w
1 sg
0 518 872 0 0 -518 2764 808 4 MP
PP
-872 0 0 518 872 0 0 -518 2764 808 5 MP stroke
4 w
DO
SO
6 w
0 sg
2764  808 mt 3636  808 L
2764  290 mt 3636  290 L
2764  808 mt 2764  290 L
3636  808 mt 3636  290 L
2764  808 mt 3636  808 L
2764  808 mt 2764  290 L
2764  808 mt 3636  808 L
2764  290 mt 3636  290 L
2764  808 mt 2764  290 L
3636  808 mt 3636  290 L
%%IncludeResource: font Helvetica
/Helvetica /ISOLatin1Encoding 144 FMSR

3234  414 mt 
(p) s
%%IncludeResource: font Helvetica
/Helvetica /ISOLatin1Encoding 108 FMSR

3314  486 mt 
(de) s
%%IncludeResource: font Helvetica
/Helvetica /ISOLatin1Encoding 144 FMSR

3434  414 mt 
(\(x\)) s
gs 2764 290 873 519 MR c np
24 w
c8
361 0 2836 428 2 MP stroke
gr

24 w
c8
0 sg
3234  655 mt 
(p) s
%%IncludeResource: font Helvetica
/Helvetica /ISOLatin1Encoding 108 FMSR

3314  727 mt 
(nu) s
%%IncludeResource: font Helvetica
/Helvetica /ISOLatin1Encoding 144 FMSR

3433  655 mt 
(\(x\)) s
gs 2764 290 873 519 MR c np
361 0 2836 669 2 MP stroke
6 w
gr

6 w

end %%Color Dict

eplot
%%EndObject

epage
end

showpage

%%Trailer
%%EOF
