%!PS-Adobe-2.0 EPSF-1.2
%%Creator: MATLAB, The Mathworks, Inc. Version 7.6.0.324 (R2008a). Operating System: Linux 2.6.31-14-generic #48-Ubuntu SMP Fri Oct 16 14:04:26 UTC 2009 i686.
%%Title: ./importance1.eps
%%CreationDate: 04/26/2010  21:39:53
%%DocumentNeededFonts: Helvetica
%%DocumentProcessColors: Cyan Magenta Yellow Black
%%Extensions: CMYK
%%Pages: 1
%%BoundingBox:    24     0   315   247
%%EndComments

%%BeginProlog
% MathWorks dictionary
/MathWorks 160 dict begin
% definition operators
/bdef {bind def} bind def
/ldef {load def} bind def
/xdef {exch def} bdef
/xstore {exch store} bdef
% operator abbreviations
/c  /clip ldef
/cc /concat ldef
/cp /closepath ldef
/gr /grestore ldef
/gs /gsave ldef
/mt /moveto ldef
/np /newpath ldef
/cm /currentmatrix ldef
/sm /setmatrix ldef
/rm /rmoveto ldef
/rl /rlineto ldef
/s {show newpath} bdef
/sc {setcmykcolor} bdef
/sr /setrgbcolor ldef
/sg /setgray ldef
/w /setlinewidth ldef
/j /setlinejoin ldef
/cap /setlinecap ldef
/rc {rectclip} bdef
/rf {rectfill} bdef
% page state control
/pgsv () def
/bpage {/pgsv save def} bdef
/epage {pgsv restore} bdef
/bplot /gsave ldef
/eplot {stroke grestore} bdef
% orientation switch
/portraitMode 0 def /landscapeMode 1 def /rotateMode 2 def
% coordinate system mappings
/dpi2point 0 def
% font control
/FontSize 0 def
/FMS {/FontSize xstore findfont [FontSize 0 0 FontSize neg 0 0]
  makefont setfont} bdef
/reencode {exch dup where {pop load} {pop StandardEncoding} ifelse
  exch dup 3 1 roll findfont dup length dict begin
  { 1 index /FID ne {def}{pop pop} ifelse } forall
  /Encoding exch def currentdict end definefont pop} bdef
/isroman {findfont /CharStrings get /Agrave known} bdef
/FMSR {3 1 roll 1 index dup isroman {reencode} {pop pop} ifelse
  exch FMS} bdef
/csm {1 dpi2point div -1 dpi2point div scale neg translate
 dup landscapeMode eq {pop -90 rotate}
  {rotateMode eq {90 rotate} if} ifelse} bdef
% line types: solid, dotted, dashed, dotdash
/SO { [] 0 setdash } bdef
/DO { [.5 dpi2point mul 4 dpi2point mul] 0 setdash } bdef
/DA { [6 dpi2point mul] 0 setdash } bdef
/DD { [.5 dpi2point mul 4 dpi2point mul 6 dpi2point mul 4
  dpi2point mul] 0 setdash } bdef
% macros for lines and objects
/L {lineto stroke} bdef
/MP {3 1 roll moveto 1 sub {rlineto} repeat} bdef
/AP {{rlineto} repeat} bdef
/PDlw -1 def
/W {/PDlw currentlinewidth def setlinewidth} def
/PP {closepath eofill} bdef
/DP {closepath stroke} bdef
/MR {4 -2 roll moveto dup  0 exch rlineto exch 0 rlineto
  neg 0 exch rlineto closepath} bdef
/FR {MR stroke} bdef
/PR {MR fill} bdef
/L1i {{currentfile picstr readhexstring pop} image} bdef
/tMatrix matrix def
/MakeOval {newpath tMatrix currentmatrix pop translate scale
0 0 1 0 360 arc tMatrix setmatrix} bdef
/FO {MakeOval stroke} bdef
/PO {MakeOval fill} bdef
/PD {currentlinewidth 2 div 0 360 arc fill
   PDlw -1 eq not {PDlw w /PDlw -1 def} if} def
/FA {newpath tMatrix currentmatrix pop translate scale
  0 0 1 5 -2 roll arc tMatrix setmatrix stroke} bdef
/PA {newpath tMatrix currentmatrix pop	translate 0 0 moveto scale
  0 0 1 5 -2 roll arc closepath tMatrix setmatrix fill} bdef
/FAn {newpath tMatrix currentmatrix pop translate scale
  0 0 1 5 -2 roll arcn tMatrix setmatrix stroke} bdef
/PAn {newpath tMatrix currentmatrix pop translate 0 0 moveto scale
  0 0 1 5 -2 roll arcn closepath tMatrix setmatrix fill} bdef
/vradius 0 def /hradius 0 def /lry 0 def
/lrx 0 def /uly 0 def /ulx 0 def /rad 0 def
/MRR {/vradius xdef /hradius xdef /lry xdef /lrx xdef /uly xdef
  /ulx xdef newpath tMatrix currentmatrix pop ulx hradius add uly
  vradius add translate hradius vradius scale 0 0 1 180 270 arc 
  tMatrix setmatrix lrx hradius sub uly vradius add translate
  hradius vradius scale 0 0 1 270 360 arc tMatrix setmatrix
  lrx hradius sub lry vradius sub translate hradius vradius scale
  0 0 1 0 90 arc tMatrix setmatrix ulx hradius add lry vradius sub
  translate hradius vradius scale 0 0 1 90 180 arc tMatrix setmatrix
  closepath} bdef
/FRR {MRR stroke } bdef
/PRR {MRR fill } bdef
/MlrRR {/lry xdef /lrx xdef /uly xdef /ulx xdef /rad lry uly sub 2 div def
  newpath tMatrix currentmatrix pop ulx rad add uly rad add translate
  rad rad scale 0 0 1 90 270 arc tMatrix setmatrix lrx rad sub lry rad
  sub translate rad rad scale 0 0 1 270 90 arc tMatrix setmatrix
  closepath} bdef
/FlrRR {MlrRR stroke } bdef
/PlrRR {MlrRR fill } bdef
/MtbRR {/lry xdef /lrx xdef /uly xdef /ulx xdef /rad lrx ulx sub 2 div def
  newpath tMatrix currentmatrix pop ulx rad add uly rad add translate
  rad rad scale 0 0 1 180 360 arc tMatrix setmatrix lrx rad sub lry rad
  sub translate rad rad scale 0 0 1 0 180 arc tMatrix setmatrix
  closepath} bdef
/FtbRR {MtbRR stroke } bdef
/PtbRR {MtbRR fill } bdef
/stri 6 array def /dtri 6 array def
/smat 6 array def /dmat 6 array def
/tmat1 6 array def /tmat2 6 array def /dif 3 array def
/asub {/ind2 exch def /ind1 exch def dup dup
  ind1 get exch ind2 get sub exch } bdef
/tri_to_matrix {
  2 0 asub 3 1 asub 4 0 asub 5 1 asub
  dup 0 get exch 1 get 7 -1 roll astore } bdef
/compute_transform {
  dmat dtri tri_to_matrix tmat1 invertmatrix 
  smat stri tri_to_matrix tmat2 concatmatrix } bdef
/ds {stri astore pop} bdef
/dt {dtri astore pop} bdef
/db {2 copy /cols xdef /rows xdef mul dup 3 mul string
  currentfile exch readhexstring pop
  dup 0 3 index getinterval /rbmap xdef
  dup 2 index dup getinterval /gbmap xdef
  1 index dup 2 mul exch getinterval /bbmap xdef pop pop}bdef
/it {gs np dtri aload pop moveto lineto lineto cp c
  cols rows 8 compute_transform 
  rbmap gbmap bbmap true 3 colorimage gr}bdef
/il {newpath moveto lineto stroke}bdef
currentdict end def
%%EndProlog

%%BeginSetup
MathWorks begin

0 cap

end
%%EndSetup

%%Page: 1 1
%%BeginPageSetup
%%PageBoundingBox:    24     0   315   247
MathWorks begin
bpage
%%EndPageSetup

%%BeginObject: obj1
bplot

/dpi2point 12 def
portraitMode 0000 3060 csm

  296    88  3490  2976 MR c np
86 dict begin %Colortable dictionary
/c0 { 0.000000 0.000000 0.000000 sr} bdef
/c1 { 1.000000 1.000000 1.000000 sr} bdef
/c2 { 0.900000 0.000000 0.000000 sr} bdef
/c3 { 0.000000 0.820000 0.000000 sr} bdef
/c4 { 0.000000 0.000000 0.800000 sr} bdef
/c5 { 0.910000 0.820000 0.320000 sr} bdef
/c6 { 1.000000 0.260000 0.820000 sr} bdef
/c7 { 0.000000 0.820000 0.820000 sr} bdef
c0
1 j
1 sg
   0    0 4085 3065 PR
6 w
0 2471 3165 0 0 -2471 531 2701 4 MP
PP
-3165 0 0 2471 3165 0 0 -2471 531 2701 5 MP stroke
4 w
DO
SO
6 w
0 sg
 531 2701 mt 3696 2701 L
 531 2701 mt  531  230 L
 531 2701 mt  531 2669 L
%%IncludeResource: font Helvetica
/Helvetica /ISOLatin1Encoding 144 FMSR

 407 2869 mt 
(-1) s
1322 2701 mt 1322 2669 L
1282 2869 mt 
(0) s
2113 2701 mt 2113 2669 L
2073 2869 mt 
(1) s
2904 2701 mt 2904 2669 L
2864 2869 mt 
(2) s
3696 2701 mt 3696 2669 L
3656 2869 mt 
(3) s
 531 2701 mt  562 2701 L
 416 2754 mt 
(0) s
 531 2392 mt  562 2392 L
 296 2445 mt 
(0.5) s
 531 2083 mt  562 2083 L
 416 2136 mt 
(1) s
 531 1774 mt  562 1774 L
 296 1827 mt 
(1.5) s
 531 1465 mt  562 1465 L
 416 1518 mt 
(2) s
 531 1156 mt  562 1156 L
 296 1209 mt 
(2.5) s
 531  847 mt  562  847 L
 416  900 mt 
(3) s
 531  538 mt  562  538 L
 296  591 mt 
(3.5) s
 531  230 mt  562  230 L
 416  283 mt 
(4) s
gs 531 230 3166 2472 MR c np
24 w
/c8 { 1.000000 0.000000 0.000000 sr} bdef
c8
28 0 28 0 28 0 28 0 28 0 28 0 28 0 28 0 
28 0 28 0 28 0 28 0 28 0 28 0 28 0 28 0 
28 0 28 0 28 0 28 0 28 0 28 0 28 0 28 0 
28 0 28 1 28 0 28 0 28 0 28 0 28 0 28 0 
28 0 28 0 28 0 28 0 28 0 27 0 28 0 28 0 
28 0 28 0 28 2 28 4 28 10 28 21 28 42 28 78 
28 130 28 202 28 282 28 357 28 403 28 397 28 324 28 188 
28 14 28 -166 28 -308 28 -390 28 -406 28 -366 28 -294 28 -212 
28 -140 28 -84 28 -47 28 -23 28 -11 28 -5 28 -1 28 -1 
28 0 28 0 28 0 27 0 28 0 28 0 28 0 28 0 
28 0 28 0 28 0 28 0 28 0 28 0 28 0 28 -1 
28 0 28 0 28 0 28 0 28 0 28 0 28 0 28 0 
28 0 28 0 28 0 926 2701 100 MP stroke
/c9 { 0.000000 1.000000 0.000000 sr} bdef
c9
28 0 28 0 28 0 28 0 28 0 28 0 28 0 28 0 
28 0 28 0 28 0 28 0 28 0 28 0 28 0 28 0 
28 0 28 0 28 0 28 0 28 0 28 0 28 0 28 0 
28 0 28 0 28 1 28 0 28 0 28 0 28 0 28 0 
28 0 28 0 28 0 28 0 28 0 27 0 28 0 28 0 
28 0 28 1 28 2 28 4 28 10 28 17 28 32 28 50 
28 74 28 105 28 138 28 175 28 207 28 229 28 229 28 200 
28 139 28 51 28 -53 28 -153 28 -231 28 -271 28 -271 28 -235 
28 -180 28 -123 28 -73 28 -40 28 -20 28 -8 28 -4 28 -1 
28 0 28 0 28 0 27 0 28 0 28 0 28 0 28 0 
28 0 28 0 28 0 28 0 28 0 28 0 28 -1 28 0 
28 0 28 0 28 0 28 0 28 0 28 0 28 0 28 0 
28 0 28 0 28 0 926 2701 100 MP stroke
12 w
gr

12 w
c9
gs 1157 941 1918 1858 MR c np
/c10 { 0.000000 0.000000 1.000000 sr} bdef
c10
  48   48 1942 1935 FO
  48   48 1454 2700 FO
  48   48 2163 1472 FO
  48   48 2227 1992 FO
  48   48 1659 2700 FO
  48   48 2584 2700 FO
  48   48 2583 2700 FO
  48   48 2098 1078 FO
  48   48 2242 2103 FO
  48   48 2182 1632 FO
  48   48 2039 1115 FO
  48   48 2400 2658 FO
  48   48 1880 2415 FO
  48   48 2977 2701 FO
  48   48 2059 1051 FO
  48   48 2158 1436 FO
  48   48 2535 2700 FO
  48   48 2136 1275 FO
  48   48 2075 1038 FO
  48   48 1784 2676 FO
  48   48 2229 2011 FO
  48   48 1584 2700 FO
  48   48 2396 2653 FO
  48   48 2755 2700 FO
  48   48 1839 2585 FO
  48   48 2452 2690 FO
  48   48 2609 2700 FO
  48   48 1482 2700 FO
  48   48 1543 2700 FO
  48   48 2339 2551 FO
  48   48 1955 1808 FO
  48   48 2386 2641 FO
  48   48 2436 2683 FO
  48   48 2395 2652 FO
  48   48 2623 2700 FO
  48   48 2378 2630 FO
  48   48 2584 2700 FO
  48   48 1637 2700 FO
  48   48 2105 1103 FO
  48   48 2051 1070 FO
  48   48 1478 2700 FO
  48   48 2215 1900 FO
  48   48 1695 2699 FO
  48   48 2673 2700 FO
  48   48 1794 2666 FO
  48   48 2322 2501 FO
  48   48 2200 1779 FO
  48   48 1748 2693 FO
  48   48 1254 2701 FO
  48   48 2090 1055 FO
  48   48 1713 2698 FO
  48   48 2356 2591 FO
  48   48 2314 2473 FO
  48   48 2783 2700 FO
  48   48 2347 2571 FO
  48   48 1858 2520 FO
  48   48 2263 2236 FO
  48   48 1714 2698 FO
  48   48 2105 1104 FO
  48   48 2094 1066 FO
  48   48 2113 1138 FO
  48   48 1987 1491 FO
  48   48 2546 2700 FO
  48   48 1372 2700 FO
  48   48 2282 2338 FO
  48   48 2467 2694 FO
  48   48 2402 2660 FO
  48   48 2342 2558 FO
  48   48 2129 1226 FO
  48   48 2381 2634 FO
  48   48 2338 2549 FO
  48   48 2012 1281 FO
  48   48 1964 1720 FO
  48   48 1996 1412 FO
  48   48 1529 2700 FO
  48   48 2020 1220 FO
  48   48 2160 1450 FO
  48   48 2238 2069 FO
  48   48 2684 2700 FO
  48   48 1974 1617 FO
  48   48 2360 2599 FO
  48   48 2429 2680 FO
  48   48 2485 2697 FO
  48   48 1721 2698 FO
  48   48 2197 1755 FO
  48   48 2207 1839 FO
  48   48 1714 2698 FO
  48   48 1819 2631 FO
  48   48 2541 2700 FO
  48   48 2061 1047 FO
  48   48 2267 2258 FO
  48   48 2148 1357 FO
  48   48 1862 2506 FO
  48   48 1892 2346 FO
  48   48 2289 2368 FO
  48   48 1737 2695 FO
  48   48 2422 2675 FO
  48   48 2338 2549 FO
  48   48 1788 2672 FO
  48   48 2008 1312 FO
gr

c10
gs 531 230 3166 2472 MR c np
gr

0 sg
2076 3030 mt 
(x) s
%%IncludeResource: font Helvetica
/Helvetica /ISOLatin1Encoding 120 FMSR

 514 2744 mt 
( ) s
3680  272 mt 
( ) s
6 w
1 sg
0 602 1179 0 0 -602 2457 892 4 MP
PP
-1179 0 0 602 1179 0 0 -602 2457 892 5 MP stroke
4 w
DO
SO
6 w
0 sg
2457  892 mt 3636  892 L
2457  290 mt 3636  290 L
2457  892 mt 2457  290 L
3636  892 mt 3636  290 L
2457  892 mt 3636  892 L
2457  892 mt 2457  290 L
2457  892 mt 3636  892 L
2457  290 mt 3636  290 L
2457  892 mt 2457  290 L
3636  892 mt 3636  290 L
%%IncludeResource: font Helvetica
/Helvetica /ISOLatin1Encoding 144 FMSR

2947  448 mt 
(w\(x\)) s
gs 2457 290 1180 603 MR c np
24 w
c8
376 0 2532 396 2 MP stroke
gr

24 w
c8
0 sg
2947  627 mt 
(w-hat\(x\)) s
gs 2457 290 1180 603 MR c np
c9
376 0 2532 575 2 MP stroke
gr

c9
0 sg
2947  833 mt 
(w-hat\(x) s
%%IncludeResource: font Helvetica
/Helvetica /ISOLatin1Encoding 108 FMSR

3455  761 mt 
(de) s
%%IncludeResource: font Helvetica
/Helvetica /ISOLatin1Encoding 144 FMSR

3575  833 mt 
(\)) s
gs 2457 290 1180 603 MR c np
12 w
gs 2623 673 195 195 MR c np
c10
  48   48 2720  770 FO
gr

c10
6 w
gr

6 w
c10

end %%Color Dict

eplot
%%EndObject

epage
end

showpage

%%Trailer
%%EOF
